Identifying H. m. rosina Scaffolds Using Hmel2.5
…
  # map the BUSCO ID to OrthoDB group ID
  query <- read_json(paste0("http://v101.orthodb.org/search?query=", busco_id))
  odb_id <- query$data[1]
  
  # get all info on the orthogroup via quiery 
  odb_info <- read_json(paste0("http://v101.orthodb.org/group?id=", odb_id),
  simplifyVector = TRUE)
  
  # return the info table
  odb_info$data$interpro_domains
})

busco_ipr %>% select(busco_id, description) %>% tibble() 

## # A tibble: 242 x 2
##    busco_id    description                                               
##    <chr>       <chr>                                                     
##  1 3497at7088  Major facilitator superfamily                             
##  2 3497at7088  Major facilitator,  sugar transporter-like                
##  3 5251at7088  Protein kinase domain                                     
##  4 5251at7088  Serine-threonine/tyrosine-protein kinase, catalytic domain
##  5 11462at7088 TATA-box binding protein                                  
##  6 13200at7088 DnaJ domain                                               
##  7 12547at7088 GINS subunit, domain A                                    
##  8 13687at7088 Zinc finger, double-stranded RNA binding                  
##  9 10238at7088 Tetraspanin/Peripherin                                    
## 10 16088at7088 Brain protein I3                                          
## # i 232 more rows
…
